%YAML 1.1
%TAG !u! tag:unity3d.com,2011:
--- !u!114 &11400000
MonoBehaviour:
  m_ObjectHideFlags: 0
  m_CorrespondingSourceObject: {fileID: 0}
  m_PrefabInstance: {fileID: 0}
  m_PrefabAsset: {fileID: 0}
  m_GameObject: {fileID: 0}
  m_Enabled: 1
  m_EditorHideFlags: 0
  m_Script: {fileID: 11500000, guid: 43c231460e4f256438f2d06e5a5859bb, type: 3}
  m_Name: LevelPreset1
  m_EditorClassIdentifier: 
  LevelID: 1
  SceneName: SampleScene
  LevelTimeLimit: 120
